Warning: Permanently added '10.128.0.30' (ECDSA) to the list of known hosts.
Warning: Permanently added '10.128.0.31' (ECDSA) to the list of known hosts.
Warning: Permanently added '10.128.0.29' (ECDSA) to the list of known hosts.
Warning: Permanently added '10.128.0.35' (ECDSA) to the list of known hosts.
Warning: Permanently added '10.128.0.45' (ECDSA) to the list of known hosts.
Warning: Permanently added '10.128.0.56' (ECDSA) to the list of known hosts.
Warning: Permanently added '10.128.0.51' (ECDSA) to the list of known hosts.
Warning: Permanently added '10.128.0.68' (ECDSA) to the list of known hosts.
Warning: Permanently added '10.128.0.34' (ECDSA) to the list of known hosts.
Warning: Permanently added '10.128.0.69' (ECDSA) to the list of known hosts.
Warning: Permanently added '10.128.0.46' (ECDSA) to the list of known hosts.
Warning: Permanently added '10.128.0.32' (ECDSA) to the list of known hosts.
Warning: Permanently added '10.128.0.36' (ECDSA) to the list of known hosts.
Warning: Permanently added '10.128.0.53' (ECDSA) to the list of known hosts.
Warning: Permanently added '10.128.0.59' (ECDSA) to the list of known hosts.
